l = [1;2;3;4]

rev l
rev [1;2;3;4]
--> ( rev [2;3;4] ) ++ [1]
--> (( rev [3;4] ) ++ [2]) ++ [1]
--> ((( rev [4] ) ++ [3]) ++ [2]) ++ [1]
--> (((( rev [] ) ++ [4]) ++ [3]) ++ [2]) ++ [1]
--> ((([] ++ [4]) ++ [3]) ++ [2]) ++ [1]
--> [] ++ [4] ++ [3] ++ [2] ++ [1]
--> [4;3;2;1]

tr_rev l
tr_rev [1;2;3;4]
--> ( rev_append [1;2;3;4] [] )
--> ( rev_append [2;3;4] (1::[]) )
--> ( rev_append [3;4] (2::1::[]) )
--> ( rev_append [4] (3::2::1::[]) )
--> ( rev_append [] (4::3::2::1::[]) )
--> [4;3;2;1]

tr_rev l
tr_rev [1;2;3;4]
--> ( rev_append [1;2;3;4] [] )
--> ( rev_append [2;3;4] ([1] ++ []) )
--> ( rev_append [3;4] ([2] ++ ([1] ++ [])) )
--> ( rev_append [4] ([3] ++ ([2] ++ ([1] ++ []))) )
--> ( rev_append [] ([4] ++ ([3] ++ ([2] ++ ([1] ++ [])))) )
--> [4;3;2;1]

                       rev [1;2;3;4] = tr_rev [1;2;3;4]
              ( rev [2;3;4] ) ++ [1] = ( rev_append [2;3;4] (1::[]) )
       (( rev [3;4] ) ++ [2]) ++ [1] = ( rev_append [3;4] (2::1::[]) )
((( rev [4] ) ++ [3]) ++ [2]) ++ [1] = ( rev_append [4] ([3] ++ ([2] ++ ([1] ++ []))) )
((([] ++ [4]) ++ [3]) ++ [2]) ++ [1] = ( rev_append [] ([4] ++ ([3] ++ ([2] ++ ([1] ++ [])))) )
                           [4;3;2;1] = [4;3;2;1]
